{
  // Ability to define array of labels to choose from
  // Problem is that currently all options are passed as they're defined, which means we could not infer the exact dice roll when displaying it in history
  // We would probably need to make an evaluated copy from content registry for that
  "minigames": {
    "label": ["Minigames", "Games Within A Game"],
    "desc": "Enrich the experience by providing more games within the game. The more - the better.",
    "tags": ["action-driven", "fun"]
  }
}
