{
  "#qualities": [
    "wholesome", "intellectual", "humorous", "rad", "artistic", "minimalist", "eccentric", "mature", "positive",
    "clever", "crafty", "intriguing", "subtle", "entertaining", "ambitious", "delightful"
  ],
  "#personal-qualities": [
    "serene", "gentle", "charming", "jolly", "serious", "passionate", "grave", "playful",
    "ferocious", "sentimental", "sensitive", "impulsive", "hot", "emotional", "sophisticated",
    "stoic", "gloomy", "moody", "melancholic", "sharp", "caustic", "pensive", "nervous"
  ],
  "2d": {
    "tags": [":dimensionality"]
  },
  "3d": {
    "tags": [":dimensionality"]
  },
  "fiction": {
    "tags": [":fictionality"]
  },
  "non-fiction": {
    "tags": [":fictionality"]
  },
  ":visuals": {
    "properties": ["unique"]
  },
  ":dimensionality": {
    "properties": ["unique"]
  },
  ":fictionality": {
    "properties": ["unique"]
  }
}
