[gd_scene load_steps=2 format=2]

[ext_resource path="res://scenes/history/FlavorText.gd" type="Script" id=1]

[node name="FlavorText" type="Label"]
modulate = Color( 0.368627, 0.286275, 0.482353, 1 )
margin_right = 880.0
margin_bottom = 15.0
size_flags_horizontal = 3
size_flags_vertical = 1
text = "Flavor Text"
autowrap = true
script = ExtResource( 1 )
