[gd_scene load_steps=3 format=2]

[ext_resource path="res://scenes/filling/Selector.gd" type="Script" id=2]
[ext_resource path="res://resources/DefaultFont.tres" type="DynamicFont" id=3]

[node name="Root" type="VBoxContainer"]
size_flags_horizontal = 3
size_flags_vertical = 5
script = ExtResource( 2 )

[node name="Delimiter" type="ReferenceRect" parent="."]
margin_right = 32.0
border_color = Color( 0, 0, 0, 0.105882 )
border_width = 2.0
editor_only = false

[node name="HBoxContainer" type="HBoxContainer" parent="."]
margin_top = 4.0
margin_right = 32.0
margin_bottom = 20.0
size_flags_horizontal = 3

[node name="Desc" type="Label" parent="HBoxContainer"]
visible = false
self_modulate = Color( 0, 0, 0, 1 )
margin_top = -4.0
margin_right = 1024.0
margin_bottom = 12.0
size_flags_horizontal = 3
custom_fonts/font = ExtResource( 3 )

[node name="ChoicesLeft" type="Label" parent="HBoxContainer"]
self_modulate = Color( 0, 0, 0, 1 )
margin_right = 32.0
margin_bottom = 16.0
custom_fonts/font = ExtResource( 3 )
text = "0 left"

[node name="ItemContainer" type="HFlowContainer" parent="."]
margin_top = 24.0
margin_right = 32.0
margin_bottom = 24.0
size_flags_horizontal = 3
